p_s_s_p/p_s.vcd
$date
	Tue Oct 19 22:44:41 2021
$end
$version
	Icarus Verilog
$end
$timescale
	1ps
$end
$scope module result_testbench $end
$var wire 1 ! valid $end
$var wire 1 " reset $end
$var wire 1 # data_out_serial $end
$var wire 8 $ data_in_8b [7:0] $end
$var wire 1 % clk_f $end
$var wire 1 & clk_4f $end
$var wire 1 ' clk_2f $end
$var wire 1 ( clk $end
$scope module gen_clk $end
$var wire 1 " reset $end
$var wire 1 ( clk $end
$var reg 1 ' clk_2f $end
$var reg 1 & clk_4f $end
$var reg 1 % clk_f $end
$upscope $end
$scope module p_s_inst $end
$var wire 1 % clk_f $end
$var wire 1 ! valid $end
$var wire 1 " reset $end
$var wire 8 ) data_in_8b [7:0] $end
$var wire 1 ( clk $end
$var reg 3 * counter [2:0] $end
$var reg 8 + data_bus [7:0] $end
$var reg 1 # data_out_serial $end
$upscope $end
$scope module p_s_tb $end
$var wire 1 # data_out_serial $end
$var reg 1 ( clk $end
$var reg 8 , data_in_8b [7:0] $end
$var reg 1 " reset $end
$var reg 1 ! valid $end
$upscope $end
$upscope $end
$enddefinitions $end
#0
$dumpvars
b100011 ,
bx +
b111 *
b100011 )
0(
x'
x&
x%
b100011 $
0#
1"
0!
$end
#2000
b10111100 +
0&
0'
0%
0"
1(
#4000
b110 *
1#
0(
#6000
1%
1'
1&
b101 *
0#
1(
#8000
b100 *
1#
0(
#10000
0&
b11 *
1(
#12000
b10 *
0(
#14000
0'
1&
b1 *
1(
#16000
b0 *
0#
0(
#18000
0&
b111 *
1(
#20000
b110 *
1#
0(
#22000
0%
1'
1&
b101 *
0#
1(
#24000
b100 *
1#
0(
#26000
0&
b11 *
1(
#28000
b10 *
0(
#30000
0'
1&
b1 *
1(
#32000
b0 *
0#
0(
#34000
0&
b111 *
1(
#36000
b110 *
1#
0(
#38000
1%
1'
1&
b101 *
0#
1(
#40000
b100 *
1#
0(
#42000
0&
b11 *
1(
#44000
b10 *
0(
#46000
0'
1&
b1 *
1(
#48000
b0 *
0#
0(
#50000
0&
b10101010 $
b10101010 )
b10101010 ,
1!
b111 *
1(
#52000
b110 *
1#
0(
#54000
b10101010 +
0%
1'
1&
b101 *
0#
1(
#56000
b100 *
1#
0(
#58000
0&
b11 *
0#
1(
#60000
b10 *
1#
0(
#62000
0'
1&
b1 *
0#
1(
#64000
b0 *
1#
0(
#66000
0&
b111 *
0#
1(
#68000
b110 *
1#
0(
#70000
1%
1'
1&
b101 *
0#
1(
#72000
b100 *
1#
0(
#74000
0&
b11 *
0#
1(
#76000
b10 *
1#
0(
#78000
0'
1&
b1 *
0#
1(
#80000
b0 *
1#
0(
#82000
0&
b111 *
0#
1(
#84000
b110 *
1#
0(
#86000
0%
1'
1&
b101 *
0#
1(
#88000
b100 *
1#
0(
#90000
0&
b11 *
0#
1(
#92000
b10 *
1#
0(
#94000
b10101011 $
b10101011 )
b10101011 ,
0'
1&
b1 *
0#
1(
#96000
b0 *
1#
0(
#98000
0&
b111 *
0#
1(
#100000
b110 *
1#
0(
#102000
b10101011 +
1%
1'
1&
b101 *
0#
1(
#104000
b100 *
1#
0(
#106000
0&
b11 *
0#
1(
#108000
b10 *
1#
0(
#110000
0'
1&
b1 *
0#
1(
#112000
b0 *
1#
0(
#114000
0&
b111 *
1(
#116000
b110 *
0(
#118000
0%
1'
1&
b101 *
0#
1(
#120000
b100 *
1#
0(
#122000
0&
b11 *
0#
1(
#124000
b10 *
1#
0(
#126000
0'
1&
b1 *
0#
1(
#128000
b0 *
1#
0(
#130000
0&
b111 *
1(
#132000
b110 *
0(
#134000
1%
1'
1&
b101 *
0#
1(
#136000
b100 *
1#
0(
#138000
0&
b11 *
0#
1(
